test/alu.vcd
$date
  Sat Jun 25 14:00:51 2022
$end
$version
  GHDL v0
$end
$timescale
  1 fs
$end
$scope module standard $end
$upscope $end
$scope module std_logic_1164 $end
$upscope $end
$scope module numeric_std $end
$upscope $end
$scope module alu_tb $end
$var reg 64 ! operand_1[63:0] $end
$var reg 64 " operand_2[63:0] $end
$var reg 2 # aluop[1:0] $end
$var reg 1 $ insn_bit_30 $end
$var reg 3 % funct3[2:0] $end
$var reg 64 & alu_output[63:0] $end
$scope module dut $end
$var reg 64 ' operand_1[63:0] $end
$var reg 64 ( operand_2[63:0] $end
$var reg 2 ) aluop[1:0] $end
$var reg 1 * insn_bit_30 $end
$var reg 3 + funct3[2:0] $end
$var reg 64 , alu_output[63:0] $end
$var reg 64 - internal_alu_output[63:0] $end
$upscope $end
$upscope $end
$enddefinitions $end
#0
bUUUUUUUUUUUUUUUUUUUUUUUUUUUUUUUUUUUUUUUUUUUUUUUUUUUUUUUUUUUUUUUU !
bUUUUUUUUUUUUUUUUUUUUUUUUUUUUUUUUUUUUUUUUUUUUUUUUUUUUUUUUUUUUUUUU "
bUU #
U$
bUUU %
bUUUUUUUUUUUUUUUUUUUUUUUUUUUUUUUUUUUUUUUUUUUUUUUUUUUUUUUUUUUUUUUU &
bUUUUUUUUUUUUUUUUUUUUUUUUUUUUUUUUUUUUUUUUUUUUUUUUUUUUUUUUUUUUUUUU '
bUUUUUUUUUUUUUUUUUUUUUUUUUUUUUUUUUUUUUUUUUUUUUUUUUUUUUUUUUUUUUUUU (
bUU )
U*
bUUU +
bUUUUUUUUUUUUUUUUUUUUUUUUUUUUUUUUUUUUUUUUUUUUUUUUUUUUUUUUUUUUUUUU ,
bUUUUUUUUUUUUUUUUUUUUUUUUUUUUUUUUUUUUUUUUUUUUUUUUUUUUUUUUUUUUUUUU -
#10000000
b0111001000000000000000000000000000000000000000000000000000000001 !
b0001001000000000000000000000010100000000000000000000000000000001 "
b01 #
1$
b010 %
bXXXXXXXXXXXXXXXXXXXXXXXXXXXXXXXXXXXXXXXXXXXXXXXXXXXXXXXXXXXXXXXX &
b0111001000000000000000000000000000000000000000000000000000000001 '
b0001001000000000000000000000010100000000000000000000000000000001 (
b01 )
1*
b010 +
bXXXXXXXXXXXXXXXXXXXXXXXXXXXXXXXXXXXXXXXXXXXXXXXXXXXXXXXXXXXXXXXX ,
bXXXXXXXXXXXXXXXXXXXXXXXXXXXXXXXXXXXXXXXXXXXXXXXXXXXXXXXXXXXXXXXX -
#20000000
b0000000000000000000000000000000000000000000000000000000000000110 !
b0000000000000000000000000000000000000000000000000000000000000001 "
b00 #
0$
b011 %
b0000000000000000000000000000000000000000000000000000000000000111 &
b0000000000000000000000000000000000000000000000000000000000000110 '
b0000000000000000000000000000000000000000000000000000000000000001 (
b00 )
0*
b011 +
b0000000000000000000000000000000000000000000000000000000000000111 ,
b0000000000000000000000000000000000000000000000000000000000000111 -
#30000000
b1111111111111111111111111111111111111111111111111111111111111111 !
b0000000000000000000000000000000000000000000000000000000000000110 "
b0000000000000000000000000000000000000000000000000000000000000101 &
b1111111111111111111111111111111111111111111111111111111111111111 '
b0000000000000000000000000000000000000000000000000000000000000110 (
b0000000000000000000000000000000000000000000000000000000000000101 ,
b0000000000000000000000000000000000000000000000000000000000000101 -
#40000000
b0000000000000000000000000000000000000000000000000000000000000110 !
b10 #
1$
b000 %
b0000000000000000000000000000000000000000000000000000000000000000 &
b0000000000000000000000000000000000000000000000000000000000000110 '
b10 )
1*
b000 +
b0000000000000000000000000000000000000000000000000000000000000000 ,
b0000000000000000000000000000000000000000000000000000000000000000 -
#50000000
b0000000000000000000000000000000000000000000000000000000000000001 !
b0000000000000000000000000000000000000000000000000000000000000100 "
0$
b001 %
b0000000000000000000000000000000000000000000000000000000000010000 &
b0000000000000000000000000000000000000000000000000000000000000001 '
b0000000000000000000000000000000000000000000000000000000000000100 (
0*
b001 +
b0000000000000000000000000000000000000000000000000000000000010000 ,
b0000000000000000000000000000000000000000000000000000000000010000 -
#60000000
b1000100000000000000000000000000000000000000000000000000000000001 !
b0000000000000000000000000000000011111111111111111111111111110000 "
b101 %
b0000000000000000100010000000000000000000000000000000000000000000 &
b1000100000000000000000000000000000000000000000000000000000000001 '
b0000000000000000000000000000000011111111111111111111111111110000 (
b101 +
b0000000000000000100010000000000000000000000000000000000000000000 ,
b0000000000000000100010000000000000000000000000000000000000000000 -
#70000000
1$
b1111111111111111100010000000000000000000000000000000000000000000 &
1*
b1111111111111111100010000000000000000000000000000000000000000000 ,
b1111111111111111100010000000000000000000000000000000000000000000 -
#80000000
b1000000000000000000000000000000000000000000000000000000000011111 !
b0000000000000000000000000000000000000000000000000000000011111111 "
U$
b010 %
b0000000000000000000000000000000000000000000000000000000000000001 &
b1000000000000000000000000000000000000000000000000000000000011111 '
b0000000000000000000000000000000000000000000000000000000011111111 (
U*
b010 +
b0000000000000000000000000000000000000000000000000000000000000001 ,
b0000000000000000000000000000000000000000000000000000000000000001 -
#90000000
b0000000000000000000000000000000000000000000000000000000000000100 !
b0000000000000000000000000000000000000000000000000000000000000001 "
b0000000000000000000000000000000000000000000000000000000000000000 &
b0000000000000000000000000000000000000000000000000000000000000100 '
b0000000000000000000000000000000000000000000000000000000000000001 (
b0000000000000000000000000000000000000000000000000000000000000000 ,
b0000000000000000000000000000000000000000000000000000000000000000 -
#100000000
b0000000000000000000000000000000000000000000000000000000000000000 !
b1000000000000000000000000000000000000000000000000000000011111111 "
X$
b011 %
b0000000000000000000000000000000000000000000000000000000000000001 &
b0000000000000000000000000000000000000000000000000000000000000000 '
b1000000000000000000000000000000000000000000000000000000011111111 (
X*
b011 +
b0000000000000000000000000000000000000000000000000000000000000001 ,
b0000000000000000000000000000000000000000000000000000000000000001 -
#110000000
b0000000000000000000000000000000000000000000000000000000000000000 "
b0000000000000000000000000000000000000000000000000000000000000000 &
b0000000000000000000000000000000000000000000000000000000000000000 (
b0000000000000000000000000000000000000000000000000000000000000000 ,
b0000000000000000000000000000000000000000000000000000000000000000 -
#210000000
#220000000
b0111001000000000000000000000000000000000000000000000000000000001 !
b0001001000000000000000000000010100000000000000000000000000000001 "
b01 #
1$
b010 %
bXXXXXXXXXXXXXXXXXXXXXXXXXXXXXXXXXXXXXXXXXXXXXXXXXXXXXXXXXXXXXXXX &
b0111001000000000000000000000000000000000000000000000000000000001 '
b0001001000000000000000000000010100000000000000000000000000000001 (
b01 )
1*
b010 +
bXXXXXXXXXXXXXXXXXXXXXXXXXXXXXXXXXXXXXXXXXXXXXXXXXXXXXXXXXXXXXXXX ,
bXXXXXXXXXXXXXXXXXXXXXXXXXXXXXXXXXXXXXXXXXXXXXXXXXXXXXXXXXXXXXXXX -
#230000000
b0000000000000000000000000000000000000000000000000000000000000110 !
b0000000000000000000000000000000000000000000000000000000000000001 "
b00 #
0$
b011 %
b0000000000000000000000000000000000000000000000000000000000000111 &
b0000000000000000000000000000000000000000000000000000000000000110 '
b0000000000000000000000000000000000000000000000000000000000000001 (
b00 )
0*
b011 +
b0000000000000000000000000000000000000000000000000000000000000111 ,
b0000000000000000000000000000000000000000000000000000000000000111 -
#240000000
b1111111111111111111111111111111111111111111111111111111111111111 !
b0000000000000000000000000000000000000000000000000000000000000110 "
b0000000000000000000000000000000000000000000000000000000000000101 &
b1111111111111111111111111111111111111111111111111111111111111111 '
b0000000000000000000000000000000000000000000000000000000000000110 (
b0000000000000000000000000000000000000000000000000000000000000101 ,
b0000000000000000000000000000000000000000000000000000000000000101 -
#250000000
b0000000000000000000000000000000000000000000000000000000000000110 !
b10 #
1$
b000 %
b0000000000000000000000000000000000000000000000000000000000000000 &
b0000000000000000000000000000000000000000000000000000000000000110 '
b10 )
1*
b000 +
b0000000000000000000000000000000000000000000000000000000000000000 ,
b0000000000000000000000000000000000000000000000000000000000000000 -
#260000000
b0000000000000000000000000000000000000000000000000000000000000001 !
b0000000000000000000000000000000000000000000000000000000000000100 "
0$
b001 %
b0000000000000000000000000000000000000000000000000000000000010000 &
b0000000000000000000000000000000000000000000000000000000000000001 '
b0000000000000000000000000000000000000000000000000000000000000100 (
0*
b001 +
b0000000000000000000000000000000000000000000000000000000000010000 ,
b0000000000000000000000000000000000000000000000000000000000010000 -
#270000000
b1000100000000000000000000000000000000000000000000000000000000001 !
b0000000000000000000000000000000011111111111111111111111111110000 "
b101 %
b0000000000000000100010000000000000000000000000000000000000000000 &
b1000100000000000000000000000000000000000000000000000000000000001 '
b0000000000000000000000000000000011111111111111111111111111110000 (
b101 +
b0000000000000000100010000000000000000000000000000000000000000000 ,
b0000000000000000100010000000000000000000000000000000000000000000 -
#280000000
1$
b1111111111111111100010000000000000000000000000000000000000000000 &
1*
b1111111111111111100010000000000000000000000000000000000000000000 ,
b1111111111111111100010000000000000000000000000000000000000000000 -
#290000000
b1000000000000000000000000000000000000000000000000000000000011111 !
b0000000000000000000000000000000000000000000000000000000011111111 "
U$
b010 %
b0000000000000000000000000000000000000000000000000000000000000001 &
b1000000000000000000000000000000000000000000000000000000000011111 '
b0000000000000000000000000000000000000000000000000000000011111111 (
U*
b010 +
b0000000000000000000000000000000000000000000000000000000000000001 ,
b0000000000000000000000000000000000000000000000000000000000000001 -
#300000000
b0000000000000000000000000000000000000000000000000000000000000100 !
b0000000000000000000000000000000000000000000000000000000000000001 "
b0000000000000000000000000000000000000000000000000000000000000000 &
b0000000000000000000000000000000000000000000000000000000000000100 '
b0000000000000000000000000000000000000000000000000000000000000001 (
b0000000000000000000000000000000000000000000000000000000000000000 ,
b0000000000000000000000000000000000000000000000000000000000000000 -
