test/branch_comparator.vcd
$date
  Fri Jun 24 18:14:47 2022
$end
$version
  GHDL v0
$end
$timescale
  1 fs
$end
$scope module standard $end
$upscope $end
$scope module std_logic_1164 $end
$upscope $end
$scope module numeric_std $end
$upscope $end
$scope module branch_comparator_tb $end
$var reg 1 ! isbranch $end
$var reg 3 " funct3[2:0] $end
$var reg 1 # sel_fwd_branch_1 $end
$var reg 1 $ sel_fwd_branch_2 $end
$var reg 64 % register_file_output_1[63:0] $end
$var reg 64 & register_file_output_2[63:0] $end
$var reg 64 ' alu_output_ex_mem[63:0] $end
$var reg 1 ( branchcmp $end
$scope module dut $end
$var reg 1 ) isbranch $end
$var reg 3 * funct3[2:0] $end
$var reg 1 + sel_fwd_branch_1 $end
$var reg 1 , sel_fwd_branch_2 $end
$var reg 64 - register_file_output_1[63:0] $end
$var reg 64 . register_file_output_2[63:0] $end
$var reg 64 / alu_output_ex_mem[63:0] $end
$var reg 1 0 branchcmp $end
$var reg 64 1 operand_1[63:0] $end
$var reg 64 2 operand_2[63:0] $end
$var reg 65 3 result_temp[64:0] $end
$var reg 1 4 internal_branchcmp $end
$var reg 1 5 bit64_temp $end
$scope module mux_fwd_branch_1 $end
$var reg 1 6 selection $end
$var reg 64 7 input_0[63:0] $end
$var reg 64 8 input_1[63:0] $end
$var reg 64 9 output_0[63:0] $end
$upscope $end
$scope module mux_fwd_branch_2 $end
$var reg 1 : selection $end
$var reg 64 ; input_0[63:0] $end
$var reg 64 < input_1[63:0] $end
$var reg 64 = output_0[63:0] $end
$upscope $end
$upscope $end
$upscope $end
$enddefinitions $end
#0
U!
bUUU "
U#
U$
bUUUUUUUUUUUUUUUUUUUUUUUUUUUUUUUUUUUUUUUUUUUUUUUUUUUUUUUUUUUUUUUU %
bUUUUUUUUUUUUUUUUUUUUUUUUUUUUUUUUUUUUUUUUUUUUUUUUUUUUUUUUUUUUUUUU &
bUUUUUUUUUUUUUUUUUUUUUUUUUUUUUUUUUUUUUUUUUUUUUUUUUUUUUUUUUUUUUUUU '
1(
U)
bUUU *
U+
U,
bUUUUUUUUUUUUUUUUUUUUUUUUUUUUUUUUUUUUUUUUUUUUUUUUUUUUUUUUUUUUUUUU -
bUUUUUUUUUUUUUUUUUUUUUUUUUUUUUUUUUUUUUUUUUUUUUUUUUUUUUUUUUUUUUUUU .
bUUUUUUUUUUUUUUUUUUUUUUUUUUUUUUUUUUUUUUUUUUUUUUUUUUUUUUUUUUUUUUUU /
10
bUUUUUUUUUUUUUUUUUUUUUUUUUUUUUUUUUUUUUUUUUUUUUUUUUUUUUUUUUUUUUUUU 1
bUUUUUUUUUUUUUUUUUUUUUUUUUUUUUUUUUUUUUUUUUUUUUUUUUUUUUUUUUUUUUUUU 2
bUUUUUUUUUUUUUUUUUUUUUUUUUUUUUUUUUUUUUUUUUUUUUUUUUUUUUUUUUUUUUUUUU 3
14
U5
U6
bUUUUUUUUUUUUUUUUUUUUUUUUUUUUUUUUUUUUUUUUUUUUUUUUUUUUUUUUUUUUUUUU 7
bUUUUUUUUUUUUUUUUUUUUUUUUUUUUUUUUUUUUUUUUUUUUUUUUUUUUUUUUUUUUUUUU 8
bUUUUUUUUUUUUUUUUUUUUUUUUUUUUUUUUUUUUUUUUUUUUUUUUUUUUUUUUUUUUUUUU 9
U:
bUUUUUUUUUUUUUUUUUUUUUUUUUUUUUUUUUUUUUUUUUUUUUUUUUUUUUUUUUUUUUUUU ;
bUUUUUUUUUUUUUUUUUUUUUUUUUUUUUUUUUUUUUUUUUUUUUUUUUUUUUUUUUUUUUUUU <
bUUUUUUUUUUUUUUUUUUUUUUUUUUUUUUUUUUUUUUUUUUUUUUUUUUUUUUUUUUUUUUUU =
#10000000
0!
bXXX "
0#
0$
b0000000000000000000000000000000000000000000000000000000000000001 %
b0000000000000000000000000000000000000000000000000000000000010001 &
b0000000000000000000000000000000000000000000000000000000000000001 '
0)
bXXX *
0+
0,
b0000000000000000000000000000000000000000000000000000000000000001 -
b0000000000000000000000000000000000000000000000000000000000010001 .
b0000000000000000000000000000000000000000000000000000000000000001 /
b0000000000000000000000000000000000000000000000000000000000000001 1
b0000000000000000000000000000000000000000000000000000000000010001 2
06
b0000000000000000000000000000000000000000000000000000000000000001 7
b0000000000000000000000000000000000000000000000000000000000000001 8
b0000000000000000000000000000000000000000000000000000000000000001 9
0:
b0000000000000000000000000000000000000000000000000000000000010001 ;
b0000000000000000000000000000000000000000000000000000000000000001 <
b0000000000000000000000000000000000000000000000000000000000010001 =
#20000000
1!
b000 "
0(
1)
b000 *
00
04
#30000000
1$
1(
1,
10
b0000000000000000000000000000000000000000000000000000000000000001 2
14
1:
b0000000000000000000000000000000000000000000000000000000000000001 =
#40000000
0$
b1111010000000000000001010000000000000001000000000000000000000001 %
b1111010000000000000001010000000000000001000000000000000000000001 &
0,
b1111010000000000000001010000000000000001000000000000000000000001 -
b1111010000000000000001010000000000000001000000000000000000000001 .
b1111010000000000000001010000000000000001000000000000000000000001 1
b1111010000000000000001010000000000000001000000000000000000000001 2
b1111010000000000000001010000000000000001000000000000000000000001 7
b1111010000000000000001010000000000000001000000000000000000000001 9
0:
b1111010000000000000001010000000000000001000000000000000000000001 ;
b1111010000000000000001010000000000000001000000000000000000000001 =
#50000000
b001 "
b1111000000000000000000000000000000000000000000000000000000000001 %
b1111000000000000000000000000000000000000000000000000000000010001 &
1(
b001 *
b1111000000000000000000000000000000000000000000000000000000000001 -
b1111000000000000000000000000000000000000000000000000000000010001 .
10
b1111000000000000000000000000000000000000000000000000000000000001 1
b1111000000000000000000000000000000000000000000000000000000010001 2
14
b1111000000000000000000000000000000000000000000000000000000000001 7
b1111000000000000000000000000000000000000000000000000000000000001 9
b1111000000000000000000000000000000000000000000000000000000010001 ;
b1111000000000000000000000000000000000000000000000000000000010001 =
#60000000
b1111000000000000111100000000010100000000000001000000000000010001 %
b1111000000000000111100000000010100000000000001000000000000010001 &
0(
b1111000000000000111100000000010100000000000001000000000000010001 -
b1111000000000000111100000000010100000000000001000000000000010001 .
00
b1111000000000000111100000000010100000000000001000000000000010001 1
b1111000000000000111100000000010100000000000001000000000000010001 2
04
b1111000000000000111100000000010100000000000001000000000000010001 7
b1111000000000000111100000000010100000000000001000000000000010001 9
b1111000000000000111100000000010100000000000001000000000000010001 ;
b1111000000000000111100000000010100000000000001000000000000010001 =
#70000000
b100 "
1#
b0111001000000000000000000000000000000000000000000000000000000001 %
b0111000000000000000000000000000000000000000000000000000000000001 &
1(
b100 *
1+
b0111001000000000000000000000000000000000000000000000000000000001 -
b0111000000000000000000000000000000000000000000000000000000000001 .
10
b0000000000000000000000000000000000000000000000000000000000000001 1
b0111000000000000000000000000000000000000000000000000000000000001 2
14
16
b0111001000000000000000000000000000000000000000000000000000000001 7
b0000000000000000000000000000000000000000000000000000000000000001 9
b0111000000000000000000000000000000000000000000000000000000000001 ;
b0111000000000000000000000000000000000000000000000000000000000001 =
#80000000
b1111000000000000000000000000000000000000000000000000000000000001 &
0(
b1111000000000000000000000000000000000000000000000000000000000001 .
00
b1111000000000000000000000000000000000000000000000000000000000001 2
04
b1111000000000000000000000000000000000000000000000000000000000001 ;
b1111000000000000000000000000000000000000000000000000000000000001 =
#90000000
b1111001000000000000000000000000000000000000000000000000000000001 %
b1000000011111111111100000000000000000000000000000000000000000001 &
b0000000011000000001100000000000000000000101000000000000000000001 '
b1111001000000000000000000000000000000000000000000000000000000001 -
b1000000011111111111100000000000000000000000000000000000000000001 .
b0000000011000000001100000000000000000000101000000000000000000001 /
b0000000011000000001100000000000000000000101000000000000000000001 1
b1000000011111111111100000000000000000000000000000000000000000001 2
b1111001000000000000000000000000000000000000000000000000000000001 7
b0000000011000000001100000000000000000000101000000000000000000001 8
b0000000011000000001100000000000000000000101000000000000000000001 9
b1000000011111111111100000000000000000000000000000000000000000001 ;
b0000000011000000001100000000000000000000101000000000000000000001 <
b1000000011111111111100000000000000000000000000000000000000000001 =
#100000000
b110 "
0#
b1000000000000000000000000000000000000000000000000000000000000000 %
b0111000000000000000000000000000000000000000000000000000000000000 &
b1111000000000000000000000000000000000000000000000000000000000001 '
0(
b110 *
0+
b1000000000000000000000000000000000000000000000000000000000000000 -
b0111000000000000000000000000000000000000000000000000000000000000 .
b1111000000000000000000000000000000000000000000000000000000000001 /
00
b1000000000000000000000000000000000000000000000000000000000000000 1
b0111000000000000000000000000000000000000000000000000000000000000 2
04
06
b1000000000000000000000000000000000000000000000000000000000000000 7
b1111000000000000000000000000000000000000000000000000000000000001 8
b1000000000000000000000000000000000000000000000000000000000000000 9
b0111000000000000000000000000000000000000000000000000000000000000 ;
b1111000000000000000000000000000000000000000000000000000000000001 <
b0111000000000000000000000000000000000000000000000000000000000000 =
#110000000
b0111000000000000000000000000000000000000000000000000000000000000 %
b1000000000000000000000000000000000000000000000000000000000000000 &
1(
b0111000000000000000000000000000000000000000000000000000000000000 -
b1000000000000000000000000000000000000000000000000000000000000000 .
10
b0111000000000000000000000000000000000000000000000000000000000000 1
b1000000000000000000000000000000000000000000000000000000000000000 2
14
b0111000000000000000000000000000000000000000000000000000000000000 7
b0111000000000000000000000000000000000000000000000000000000000000 9
b1000000000000000000000000000000000000000000000000000000000000000 ;
b1000000000000000000000000000000000000000000000000000000000000000 =
#210000000
#220000000
0!
bXXX "
b0000000000000000000000000000000000000000000000000000000000000001 %
b0000000000000000000000000000000000000000000000000000000000010001 &
b0000000000000000000000000000000000000000000000000000000000000001 '
0)
bXXX *
b0000000000000000000000000000000000000000000000000000000000000001 -
b0000000000000000000000000000000000000000000000000000000000010001 .
b0000000000000000000000000000000000000000000000000000000000000001 /
b0000000000000000000000000000000000000000000000000000000000000001 1
b0000000000000000000000000000000000000000000000000000000000010001 2
b0000000000000000000000000000000000000000000000000000000000000001 7
b0000000000000000000000000000000000000000000000000000000000000001 8
b0000000000000000000000000000000000000000000000000000000000000001 9
b0000000000000000000000000000000000000000000000000000000000010001 ;
b0000000000000000000000000000000000000000000000000000000000000001 <
b0000000000000000000000000000000000000000000000000000000000010001 =
#230000000
1!
b000 "
0(
1)
b000 *
00
04
#240000000
1$
1(
1,
10
b0000000000000000000000000000000000000000000000000000000000000001 2
14
1:
b0000000000000000000000000000000000000000000000000000000000000001 =
#250000000
0$
b1111010000000000000001010000000000000001000000000000000000000001 %
b1111010000000000000001010000000000000001000000000000000000000001 &
0,
b1111010000000000000001010000000000000001000000000000000000000001 -
b1111010000000000000001010000000000000001000000000000000000000001 .
b1111010000000000000001010000000000000001000000000000000000000001 1
b1111010000000000000001010000000000000001000000000000000000000001 2
b1111010000000000000001010000000000000001000000000000000000000001 7
b1111010000000000000001010000000000000001000000000000000000000001 9
0:
b1111010000000000000001010000000000000001000000000000000000000001 ;
b1111010000000000000001010000000000000001000000000000000000000001 =
