test/control_unit.vcd
$date
  Sat Jun 25 13:05:39 2022
$end
$version
  GHDL v0
$end
$timescale
  1 fs
$end
$scope module standard $end
$upscope $end
$scope module std_logic_1164 $end
$upscope $end
$scope module numeric_std $end
$upscope $end
$scope module control_unit_tb $end
$var reg 32 ! instruction[31:0] $end
$var reg 64 " immediate[63:0] $end
$var reg 2 # aluop[1:0] $end
$var reg 1 $ alusrc $end
$var reg 1 % memtoreg $end
$var reg 1 & regwrite $end
$var reg 1 ' memread $end
$var reg 1 ( memwrite $end
$var reg 1 ) isbranch $end
$var reg 1 * jump $end
$var reg 1 + id_flush $end
$scope module dut $end
$var reg 32 , instruction[31:0] $end
$var reg 64 - immediate[63:0] $end
$var reg 2 . aluop[1:0] $end
$var reg 1 / alusrc $end
$var reg 1 0 memtoreg $end
$var reg 1 1 regwrite $end
$var reg 1 2 memread $end
$var reg 1 3 memwrite $end
$var reg 1 4 isbranch $end
$var reg 1 5 jump $end
$var reg 1 6 id_flush $end
$var reg 32 7 internal_instruction[31:0] $end
$var reg 64 8 internal_immediate[63:0] $end
$var reg 2 9 internal_aluop[1:0] $end
$var reg 1 : internal_alusrc $end
$var reg 1 ; internal_memtoreg $end
$var reg 1 < internal_regwrite $end
$var reg 1 = internal_memread $end
$var reg 1 > internal_memwrite $end
$var reg 1 ? internal_isbranch $end
$var reg 1 @ internal_jump $end
$var reg 1 A internal_id_flush $end
$upscope $end
$upscope $end
$enddefinitions $end
#0
bUUUUUUUUUUUUUUUUUUUUUUUUUUUUUUUU !
bXXXXXXXXXXXXXXXXXXXXXXXXXXXXXXXXXXXXXXXXXXXXXXXXXXXXXXXXXXXXXXXX "
bXX #
X$
X%
X&
X'
X(
X)
X*
1+
bUUUUUUUUUUUUUUUUUUUUUUUUUUUUUUUU ,
bXXXXXXXXXXXXXXXXXXXXXXXXXXXXXXXXXXXXXXXXXXXXXXXXXXXXXXXXXXXXXXXX -
bXX .
X/
X0
X1
X2
X3
X4
X5
16
bUUUUUUUUUUUUUUUUUUUUUUUUUUUUUUUU 7
bXXXXXXXXXXXXXXXXXXXXXXXXXXXXXXXXXXXXXXXXXXXXXXXXXXXXXXXXXXXXXXXX 8
bXX 9
X:
X;
X<
X=
X>
X?
X@
1A
#10000000
b00000000000100000000000000000011 !
b0000000000000000000000000000000000000000000000000000000000000001 "
b00 #
1$
1%
1&
1'
0(
0)
0*
0+
b00000000000100000000000000000011 ,
b0000000000000000000000000000000000000000000000000000000000000001 -
b00 .
1/
10
11
12
03
04
05
06
b00000000000100000000000000000011 7
b0000000000000000000000000000000000000000000000000000000000000001 8
b00 9
1:
1;
1<
1=
0>
0?
0@
0A
#20000000
b00000001111100000000010000010011 !
b0000000000000000000000000000000000000000000000000000000000011111 "
b10 #
0$
0%
0'
b00000001111100000000010000010011 ,
b0000000000000000000000000000000000000000000000000000000000011111 -
b10 .
0/
00
02
b00000001111100000000010000010011 7
b0000000000000000000000000000000000000000000000000000000000011111 8
b10 9
0:
0;
0=
#120000000
#130000000
b00000000000100000000000000000011 !
b0000000000000000000000000000000000000000000000000000000000000001 "
b00 #
1$
1%
1'
b00000000000100000000000000000011 ,
b0000000000000000000000000000000000000000000000000000000000000001 -
b00 .
1/
10
12
b00000000000100000000000000000011 7
b0000000000000000000000000000000000000000000000000000000000000001 8
b00 9
1:
1;
1=
#140000000
b00000001111100000000010000010011 !
b0000000000000000000000000000000000000000000000000000000000011111 "
b10 #
0$
0%
0'
b00000001111100000000010000010011 ,
b0000000000000000000000000000000000000000000000000000000000011111 -
b10 .
0/
00
02
b00000001111100000000010000010011 7
b0000000000000000000000000000000000000000000000000000000000011111 8
b10 9
0:
0;
0=
#240000000
#250000000
b00000000000100000000000000000011 !
b0000000000000000000000000000000000000000000000000000000000000001 "
b00 #
1$
1%
1'
b00000000000100000000000000000011 ,
b0000000000000000000000000000000000000000000000000000000000000001 -
b00 .
1/
10
12
b00000000000100000000000000000011 7
b0000000000000000000000000000000000000000000000000000000000000001 8
b00 9
1:
1;
1=
#260000000
b00000001111100000000010000010011 !
b0000000000000000000000000000000000000000000000000000000000011111 "
b10 #
0$
0%
0'
b00000001111100000000010000010011 ,
b0000000000000000000000000000000000000000000000000000000000011111 -
b10 .
0/
00
02
b00000001111100000000010000010011 7
b0000000000000000000000000000000000000000000000000000000000011111 8
b10 9
0:
0;
0=
#360000000
#370000000
b00000000000100000000000000000011 !
b0000000000000000000000000000000000000000000000000000000000000001 "
b00 #
1$
1%
1'
b00000000000100000000000000000011 ,
b0000000000000000000000000000000000000000000000000000000000000001 -
b00 .
1/
10
12
b00000000000100000000000000000011 7
b0000000000000000000000000000000000000000000000000000000000000001 8
b00 9
1:
1;
1=
#380000000
b00000001111100000000010000010011 !
b0000000000000000000000000000000000000000000000000000000000011111 "
b10 #
0$
0%
0'
b00000001111100000000010000010011 ,
b0000000000000000000000000000000000000000000000000000000000011111 -
b10 .
0/
00
02
b00000001111100000000010000010011 7
b0000000000000000000000000000000000000000000000000000000000011111 8
b10 9
0:
0;
0=
#480000000
#490000000
b00000000000100000000000000000011 !
b0000000000000000000000000000000000000000000000000000000000000001 "
b00 #
1$
1%
1'
b00000000000100000000000000000011 ,
b0000000000000000000000000000000000000000000000000000000000000001 -
b00 .
1/
10
12
b00000000000100000000000000000011 7
b0000000000000000000000000000000000000000000000000000000000000001 8
b00 9
1:
1;
1=
#500000000
b00000001111100000000010000010011 !
b0000000000000000000000000000000000000000000000000000000000011111 "
b10 #
0$
0%
0'
b00000001111100000000010000010011 ,
b0000000000000000000000000000000000000000000000000000000000011111 -
b10 .
0/
00
02
b00000001111100000000010000010011 7
b0000000000000000000000000000000000000000000000000000000000011111 8
b10 9
0:
0;
0=
#600000000
#610000000
b00000000000100000000000000000011 !
b0000000000000000000000000000000000000000000000000000000000000001 "
b00 #
1$
1%
1'
b00000000000100000000000000000011 ,
b0000000000000000000000000000000000000000000000000000000000000001 -
b00 .
1/
10
12
b00000000000100000000000000000011 7
b0000000000000000000000000000000000000000000000000000000000000001 8
b00 9
1:
1;
1=
#620000000
b00000001111100000000010000010011 !
b0000000000000000000000000000000000000000000000000000000000011111 "
b10 #
0$
0%
0'
b00000001111100000000010000010011 ,
b0000000000000000000000000000000000000000000000000000000000011111 -
b10 .
0/
00
02
b00000001111100000000010000010011 7
b0000000000000000000000000000000000000000000000000000000000011111 8
b10 9
0:
0;
0=
#720000000
#730000000
b00000000000100000000000000000011 !
b0000000000000000000000000000000000000000000000000000000000000001 "
b00 #
1$
1%
1'
b00000000000100000000000000000011 ,
b0000000000000000000000000000000000000000000000000000000000000001 -
b00 .
1/
10
12
b00000000000100000000000000000011 7
b0000000000000000000000000000000000000000000000000000000000000001 8
b00 9
1:
1;
1=
#740000000
b00000001111100000000010000010011 !
b0000000000000000000000000000000000000000000000000000000000011111 "
b10 #
0$
0%
0'
b00000001111100000000010000010011 ,
b0000000000000000000000000000000000000000000000000000000000011111 -
b10 .
0/
00
02
b00000001111100000000010000010011 7
b0000000000000000000000000000000000000000000000000000000000011111 8
b10 9
0:
0;
0=
#840000000
#850000000
b00000000000100000000000000000011 !
b0000000000000000000000000000000000000000000000000000000000000001 "
b00 #
1$
1%
1'
b00000000000100000000000000000011 ,
b0000000000000000000000000000000000000000000000000000000000000001 -
b00 .
1/
10
12
b00000000000100000000000000000011 7
b0000000000000000000000000000000000000000000000000000000000000001 8
b00 9
1:
1;
1=
#860000000
b00000001111100000000010000010011 !
b0000000000000000000000000000000000000000000000000000000000011111 "
b10 #
0$
0%
0'
b00000001111100000000010000010011 ,
b0000000000000000000000000000000000000000000000000000000000011111 -
b10 .
0/
00
02
b00000001111100000000010000010011 7
b0000000000000000000000000000000000000000000000000000000000011111 8
b10 9
0:
0;
0=
#960000000
#970000000
b00000000000100000000000000000011 !
b0000000000000000000000000000000000000000000000000000000000000001 "
b00 #
1$
1%
1'
b00000000000100000000000000000011 ,
b0000000000000000000000000000000000000000000000000000000000000001 -
b00 .
1/
10
12
b00000000000100000000000000000011 7
b0000000000000000000000000000000000000000000000000000000000000001 8
b00 9
1:
1;
1=
#980000000
b00000001111100000000010000010011 !
b0000000000000000000000000000000000000000000000000000000000011111 "
b10 #
0$
0%
0'
b00000001111100000000010000010011 ,
b0000000000000000000000000000000000000000000000000000000000011111 -
b10 .
0/
00
02
b00000001111100000000010000010011 7
b0000000000000000000000000000000000000000000000000000000000011111 8
b10 9
0:
0;
0=
#1080000000
#1090000000
b00000000000100000000000000000011 !
b0000000000000000000000000000000000000000000000000000000000000001 "
b00 #
1$
1%
1'
b00000000000100000000000000000011 ,
b0000000000000000000000000000000000000000000000000000000000000001 -
b00 .
1/
10
12
b00000000000100000000000000000011 7
b0000000000000000000000000000000000000000000000000000000000000001 8
b00 9
1:
1;
1=
#1100000000
b00000001111100000000010000010011 !
b0000000000000000000000000000000000000000000000000000000000011111 "
b10 #
0$
0%
0'
b00000001111100000000010000010011 ,
b0000000000000000000000000000000000000000000000000000000000011111 -
b10 .
0/
00
02
b00000001111100000000010000010011 7
b0000000000000000000000000000000000000000000000000000000000011111 8
b10 9
0:
0;
0=
#1200000000
#1210000000
b00000000000100000000000000000011 !
b0000000000000000000000000000000000000000000000000000000000000001 "
b00 #
1$
1%
1'
b00000000000100000000000000000011 ,
b0000000000000000000000000000000000000000000000000000000000000001 -
b00 .
1/
10
12
b00000000000100000000000000000011 7
b0000000000000000000000000000000000000000000000000000000000000001 8
b00 9
1:
1;
1=
#1220000000
b00000001111100000000010000010011 !
b0000000000000000000000000000000000000000000000000000000000011111 "
b10 #
0$
0%
0'
b00000001111100000000010000010011 ,
b0000000000000000000000000000000000000000000000000000000000011111 -
b10 .
0/
00
02
b00000001111100000000010000010011 7
b0000000000000000000000000000000000000000000000000000000000011111 8
b10 9
0:
0;
0=
#1320000000
#1330000000
b00000000000100000000000000000011 !
b0000000000000000000000000000000000000000000000000000000000000001 "
b00 #
1$
1%
1'
b00000000000100000000000000000011 ,
b0000000000000000000000000000000000000000000000000000000000000001 -
b00 .
1/
10
12
b00000000000100000000000000000011 7
b0000000000000000000000000000000000000000000000000000000000000001 8
b00 9
1:
1;
1=
#1340000000
b00000001111100000000010000010011 !
b0000000000000000000000000000000000000000000000000000000000011111 "
b10 #
0$
0%
0'
b00000001111100000000010000010011 ,
b0000000000000000000000000000000000000000000000000000000000011111 -
b10 .
0/
00
02
b00000001111100000000010000010011 7
b0000000000000000000000000000000000000000000000000000000000011111 8
b10 9
0:
0;
0=
#1440000000
#1450000000
b00000000000100000000000000000011 !
b0000000000000000000000000000000000000000000000000000000000000001 "
b00 #
1$
1%
1'
b00000000000100000000000000000011 ,
b0000000000000000000000000000000000000000000000000000000000000001 -
b00 .
1/
10
12
b00000000000100000000000000000011 7
b0000000000000000000000000000000000000000000000000000000000000001 8
b00 9
1:
1;
1=
#1460000000
b00000001111100000000010000010011 !
b0000000000000000000000000000000000000000000000000000000000011111 "
b10 #
0$
0%
0'
b00000001111100000000010000010011 ,
b0000000000000000000000000000000000000000000000000000000000011111 -
b10 .
0/
00
02
b00000001111100000000010000010011 7
b0000000000000000000000000000000000000000000000000000000000011111 8
b10 9
0:
0;
0=
#1560000000
#1570000000
b00000000000100000000000000000011 !
b0000000000000000000000000000000000000000000000000000000000000001 "
b00 #
1$
1%
1'
b00000000000100000000000000000011 ,
b0000000000000000000000000000000000000000000000000000000000000001 -
b00 .
1/
10
12
b00000000000100000000000000000011 7
b0000000000000000000000000000000000000000000000000000000000000001 8
b00 9
1:
1;
1=
#1580000000
b00000001111100000000010000010011 !
b0000000000000000000000000000000000000000000000000000000000011111 "
b10 #
0$
0%
0'
b00000001111100000000010000010011 ,
b0000000000000000000000000000000000000000000000000000000000011111 -
b10 .
0/
00
02
b00000001111100000000010000010011 7
b0000000000000000000000000000000000000000000000000000000000011111 8
b10 9
0:
0;
0=
#1680000000
#1690000000
b00000000000100000000000000000011 !
b0000000000000000000000000000000000000000000000000000000000000001 "
b00 #
1$
1%
1'
b00000000000100000000000000000011 ,
b0000000000000000000000000000000000000000000000000000000000000001 -
b00 .
1/
10
12
b00000000000100000000000000000011 7
b0000000000000000000000000000000000000000000000000000000000000001 8
b00 9
1:
1;
1=
#1700000000
b00000001111100000000010000010011 !
b0000000000000000000000000000000000000000000000000000000000011111 "
b10 #
0$
0%
0'
b00000001111100000000010000010011 ,
b0000000000000000000000000000000000000000000000000000000000011111 -
b10 .
0/
00
02
b00000001111100000000010000010011 7
b0000000000000000000000000000000000000000000000000000000000011111 8
b10 9
0:
0;
0=
#1800000000
#1810000000
b00000000000100000000000000000011 !
b0000000000000000000000000000000000000000000000000000000000000001 "
b00 #
1$
1%
1'
b00000000000100000000000000000011 ,
b0000000000000000000000000000000000000000000000000000000000000001 -
b00 .
1/
10
12
b00000000000100000000000000000011 7
b0000000000000000000000000000000000000000000000000000000000000001 8
b00 9
1:
1;
1=
#1820000000
b00000001111100000000010000010011 !
b0000000000000000000000000000000000000000000000000000000000011111 "
b10 #
0$
0%
0'
b00000001111100000000010000010011 ,
b0000000000000000000000000000000000000000000000000000000000011111 -
b10 .
0/
00
02
b00000001111100000000010000010011 7
b0000000000000000000000000000000000000000000000000000000000011111 8
b10 9
0:
0;
0=
#1920000000
#1930000000
b00000000000100000000000000000011 !
b0000000000000000000000000000000000000000000000000000000000000001 "
b00 #
1$
1%
1'
b00000000000100000000000000000011 ,
b0000000000000000000000000000000000000000000000000000000000000001 -
b00 .
1/
10
12
b00000000000100000000000000000011 7
b0000000000000000000000000000000000000000000000000000000000000001 8
b00 9
1:
1;
1=
#1940000000
b00000001111100000000010000010011 !
b0000000000000000000000000000000000000000000000000000000000011111 "
b10 #
0$
0%
0'
b00000001111100000000010000010011 ,
b0000000000000000000000000000000000000000000000000000000000011111 -
b10 .
0/
00
02
b00000001111100000000010000010011 7
b0000000000000000000000000000000000000000000000000000000000011111 8
b10 9
0:
0;
0=
#2040000000
#2050000000
b00000000000100000000000000000011 !
b0000000000000000000000000000000000000000000000000000000000000001 "
b00 #
1$
1%
1'
b00000000000100000000000000000011 ,
b0000000000000000000000000000000000000000000000000000000000000001 -
b00 .
1/
10
12
b00000000000100000000000000000011 7
b0000000000000000000000000000000000000000000000000000000000000001 8
b00 9
1:
1;
1=
#2060000000
b00000001111100000000010000010011 !
b0000000000000000000000000000000000000000000000000000000000011111 "
b10 #
0$
0%
0'
b00000001111100000000010000010011 ,
b0000000000000000000000000000000000000000000000000000000000011111 -
b10 .
0/
00
02
b00000001111100000000010000010011 7
b0000000000000000000000000000000000000000000000000000000000011111 8
b10 9
0:
0;
0=
#2160000000
#2170000000
b00000000000100000000000000000011 !
b0000000000000000000000000000000000000000000000000000000000000001 "
b00 #
1$
1%
1'
b00000000000100000000000000000011 ,
b0000000000000000000000000000000000000000000000000000000000000001 -
b00 .
1/
10
12
b00000000000100000000000000000011 7
b0000000000000000000000000000000000000000000000000000000000000001 8
b00 9
1:
1;
1=
#2180000000
b00000001111100000000010000010011 !
b0000000000000000000000000000000000000000000000000000000000011111 "
b10 #
0$
0%
0'
b00000001111100000000010000010011 ,
b0000000000000000000000000000000000000000000000000000000000011111 -
b10 .
0/
00
02
b00000001111100000000010000010011 7
b0000000000000000000000000000000000000000000000000000000000011111 8
b10 9
0:
0;
0=
#2280000000
#2290000000
b00000000000100000000000000000011 !
b0000000000000000000000000000000000000000000000000000000000000001 "
b00 #
1$
1%
1'
b00000000000100000000000000000011 ,
b0000000000000000000000000000000000000000000000000000000000000001 -
b00 .
1/
10
12
b00000000000100000000000000000011 7
b0000000000000000000000000000000000000000000000000000000000000001 8
b00 9
1:
1;
1=
#2300000000
b00000001111100000000010000010011 !
b0000000000000000000000000000000000000000000000000000000000011111 "
b10 #
0$
0%
0'
b00000001111100000000010000010011 ,
b0000000000000000000000000000000000000000000000000000000000011111 -
b10 .
0/
00
02
b00000001111100000000010000010011 7
b0000000000000000000000000000000000000000000000000000000000011111 8
b10 9
0:
0;
0=
#2400000000
#2410000000
b00000000000100000000000000000011 !
b0000000000000000000000000000000000000000000000000000000000000001 "
b00 #
1$
1%
1'
b00000000000100000000000000000011 ,
b0000000000000000000000000000000000000000000000000000000000000001 -
b00 .
1/
10
12
b00000000000100000000000000000011 7
b0000000000000000000000000000000000000000000000000000000000000001 8
b00 9
1:
1;
1=
#2420000000
b00000001111100000000010000010011 !
b0000000000000000000000000000000000000000000000000000000000011111 "
b10 #
0$
0%
0'
b00000001111100000000010000010011 ,
b0000000000000000000000000000000000000000000000000000000000011111 -
b10 .
0/
00
02
b00000001111100000000010000010011 7
b0000000000000000000000000000000000000000000000000000000000011111 8
b10 9
0:
0;
0=
