test/IF_ID_DIV.vcd
$date
  Sat Jun 25 18:19:20 2022
$end
$version
  GHDL v0
$end
$timescale
  1 fs
$end
$scope module standard $end
$upscope $end
$scope module std_logic_1164 $end
$upscope $end
$scope module if_id_div_tb $end
$var reg 1 ! clock $end
$var reg 1 " clear $end
$var reg 1 # flush $end
$var reg 1 $ stall $end
$var reg 64 % instruction_address_in[63:0] $end
$var reg 32 & instruction_data_in[31:0] $end
$var reg 64 ' instruction_address_out[63:0] $end
$var reg 32 ( instruction_data_out[31:0] $end
$scope module dut $end
$var reg 1 ) clock $end
$var reg 1 * clear $end
$var reg 1 + stall $end
$var reg 1 , flush $end
$var reg 64 - instruction_address_in[63:0] $end
$var reg 32 . instruction_data_in[31:0] $end
$var reg 64 / instruction_address_out[63:0] $end
$var reg 32 0 instruction_data_out[31:0] $end
$var reg 64 1 instruction_address_input_signal[63:0] $end
$var reg 32 2 instruction_data_input_signal[31:0] $end
$var reg 64 3 instruction_address_output_signal[63:0] $end
$var reg 32 4 instruction_data_output_signal[31:0] $end
$var reg 1 5 data_clear $end
$var reg 1 6 load $end
$scope module instruction_address_reg $end
$var reg 64 7 reg_in[63:0] $end
$var reg 1 8 load $end
$var reg 1 9 clock $end
$var reg 1 : clear $end
$var reg 64 ; reg_out[63:0] $end
$var reg 64 < internal_value[63:0] $end
$upscope $end
$scope module instruction_data_reg $end
$var reg 32 = reg_in[31:0] $end
$var reg 1 > load $end
$var reg 1 ? clock $end
$var reg 1 @ clear $end
$var reg 32 A reg_out[31:0] $end
$var reg 32 B internal_value[31:0] $end
$upscope $end
$upscope $end
$upscope $end
$enddefinitions $end
#0
0!
0"
0#
0$
b0000000000000000000000000000000000000000000000000000000000000000 %
b00000000000000000000000000000000 &
b0000000000000000000000000000000000000000000000000000000000000000 '
b00000000000000000000000000000000 (
0)
0*
0+
0,
b0000000000000000000000000000000000000000000000000000000000000000 -
b00000000000000000000000000000000 .
b0000000000000000000000000000000000000000000000000000000000000000 /
b00000000000000000000000000000000 0
b0000000000000000000000000000000000000000000000000000000000000000 1
b00000000000000000000000000000000 2
b0000000000000000000000000000000000000000000000000000000000000000 3
b00000000000000000000000000000000 4
05
16
b0000000000000000000000000000000000000000000000000000000000000000 7
18
09
0:
b0000000000000000000000000000000000000000000000000000000000000000 ;
b0000000000000000000000000000000000000000000000000000000000000000 <
b00000000000000000000000000000000 =
1>
0?
0@
b00000000000000000000000000000000 A
b00000000000000000000000000000000 B
#5000000
1!
1)
19
1?
#10000000
0!
0)
09
0?
#15000000
1!
1)
19
1?
#20000000
0!
1"
0)
1*
15
09
1:
0?
1@
#25000000
1!
1)
19
1?
#30000000
0!
0)
09
0?
#35000000
1!
1)
19
1?
#40000000
0!
0"
0)
0*
05
09
0:
0?
0@
#43000000
b0000000000000000000000000000000000000000000000000000000000000100 %
b00000000000000000000000000000001 &
b0000000000000000000000000000000000000000000000000000000000000100 -
b00000000000000000000000000000001 .
b0000000000000000000000000000000000000000000000000000000000000100 1
b00000000000000000000000000000001 2
b0000000000000000000000000000000000000000000000000000000000000100 7
b00000000000000000000000000000001 =
#45000000
1!
1)
19
1?
#50000000
0!
b0000000000000000000000000000000000000000000000000000000000000100 '
b00000000000000000000000000000001 (
0)
b0000000000000000000000000000000000000000000000000000000000000100 /
b00000000000000000000000000000001 0
b0000000000000000000000000000000000000000000000000000000000000100 3
b00000000000000000000000000000001 4
09
b0000000000000000000000000000000000000000000000000000000000000100 ;
b0000000000000000000000000000000000000000000000000000000000000100 <
0?
b00000000000000000000000000000001 A
b00000000000000000000000000000001 B
#53000000
b0000000000000000000000000000000000000000000000000000000000001000 %
b00000000000000000000000000010000 &
b0000000000000000000000000000000000000000000000000000000000001000 -
b00000000000000000000000000010000 .
b0000000000000000000000000000000000000000000000000000000000001000 1
b00000000000000000000000000010000 2
b0000000000000000000000000000000000000000000000000000000000001000 7
b00000000000000000000000000010000 =
#55000000
1!
1)
19
1?
#60000000
0!
b0000000000000000000000000000000000000000000000000000000000001000 '
b00000000000000000000000000010000 (
0)
b0000000000000000000000000000000000000000000000000000000000001000 /
b00000000000000000000000000010000 0
b0000000000000000000000000000000000000000000000000000000000001000 3
b00000000000000000000000000010000 4
09
b0000000000000000000000000000000000000000000000000000000000001000 ;
b0000000000000000000000000000000000000000000000000000000000001000 <
0?
b00000000000000000000000000010000 A
b00000000000000000000000000010000 B
#63000000
1#
b0000000000000000000000000000000000000000000000000000000000001100 %
b00000000000000010000000000010000 &
b00000000000000000000000000000000 (
1,
b0000000000000000000000000000000000000000000000000000000000001100 -
b00000000000000010000000000010000 .
b00000000000000000000000000000000 0
b0000000000000000000000000000000000000000000000000000000000001100 1
b00000000000000010000000000010000 2
b00000000000000000000000000000000 4
15
b0000000000000000000000000000000000000000000000000000000000001100 7
b00000000000000010000000000010000 =
1@
b00000000000000000000000000000000 A
b00000000000000000000000000000000 B
#65000000
1!
1)
19
1?
#70000000
0!
b0000000000000000000000000000000000000000000000000000000000001100 '
0)
b0000000000000000000000000000000000000000000000000000000000001100 /
b0000000000000000000000000000000000000000000000000000000000001100 3
09
b0000000000000000000000000000000000000000000000000000000000001100 ;
b0000000000000000000000000000000000000000000000000000000000001100 <
0?
#73000000
0#
b0000000000000000000000000000000000000000000000000000000000000100 %
b00000000000000000000000000010000 &
0,
b0000000000000000000000000000000000000000000000000000000000000100 -
b00000000000000000000000000010000 .
b0000000000000000000000000000000000000000000000000000000000000100 1
b00000000000000000000000000010000 2
05
b0000000000000000000000000000000000000000000000000000000000000100 7
b00000000000000000000000000010000 =
0@
#75000000
1!
1)
19
1?
#77000000
b0000000000000000000000000000000000000000000000000000000000001000 %
b00010000000000000000000000000000 &
b0000000000000000000000000000000000000000000000000000000000001000 -
b00010000000000000000000000000000 .
b0000000000000000000000000000000000000000000000000000000000001000 1
b00010000000000000000000000000000 2
b0000000000000000000000000000000000000000000000000000000000001000 7
b00010000000000000000000000000000 =
#80000000
0!
b0000000000000000000000000000000000000000000000000000000000001000 '
b00010000000000000000000000000000 (
0)
b0000000000000000000000000000000000000000000000000000000000001000 /
b00010000000000000000000000000000 0
b0000000000000000000000000000000000000000000000000000000000001000 3
b00010000000000000000000000000000 4
09
b0000000000000000000000000000000000000000000000000000000000001000 ;
b0000000000000000000000000000000000000000000000000000000000001000 <
0?
b00010000000000000000000000000000 A
b00010000000000000000000000000000 B
#83000000
b0000000000000000000000000000000000000000000000000000000000000000 %
b00000000000000000000000000000000 &
b0000000000000000000000000000000000000000000000000000000000000000 -
b00000000000000000000000000000000 .
b0000000000000000000000000000000000000000000000000000000000000000 1
b00000000000000000000000000000000 2
b0000000000000000000000000000000000000000000000000000000000000000 7
b00000000000000000000000000000000 =
#85000000
1!
1)
19
1?
#90000000
0!
b0000000000000000000000000000000000000000000000000000000000000000 '
b00000000000000000000000000000000 (
0)
b0000000000000000000000000000000000000000000000000000000000000000 /
b00000000000000000000000000000000 0
b0000000000000000000000000000000000000000000000000000000000000000 3
b00000000000000000000000000000000 4
09
b0000000000000000000000000000000000000000000000000000000000000000 ;
b0000000000000000000000000000000000000000000000000000000000000000 <
0?
b00000000000000000000000000000000 A
b00000000000000000000000000000000 B
#93000000
1$
b0000000000000000000000000000000000000000000000000001000000000000 %
b00000000000000000000000100000000 &
1+
b0000000000000000000000000000000000000000000000000001000000000000 -
b00000000000000000000000100000000 .
b0000000000000000000000000000000000000000000000000001000000000000 1
b00000000000000000000000100000000 2
06
b0000000000000000000000000000000000000000000000000001000000000000 7
08
b00000000000000000000000100000000 =
0>
#95000000
1!
1)
19
1?
#100000000
0!
0)
09
0?
#103000000
0$
0+
16
18
1>
#105000000
1!
1)
19
1?
#110000000
0!
b0000000000000000000000000000000000000000000000000001000000000000 '
b00000000000000000000000100000000 (
0)
b0000000000000000000000000000000000000000000000000001000000000000 /
b00000000000000000000000100000000 0
b0000000000000000000000000000000000000000000000000001000000000000 3
b00000000000000000000000100000000 4
09
b0000000000000000000000000000000000000000000000000001000000000000 ;
b0000000000000000000000000000000000000000000000000001000000000000 <
0?
b00000000000000000000000100000000 A
b00000000000000000000000100000000 B
#115000000
1!
1)
19
1?
#120000000
0!
0)
09
0?
#125000000
1!
1)
19
1?
#130000000
0!
0)
09
0?
#135000000
1!
1)
19
1?
#140000000
0!
0)
09
0?
#145000000
1!
1)
19
1?
#150000000
0!
0)
09
0?
#155000000
1!
1)
19
1?
#160000000
0!
0)
09
0?
#165000000
1!
1)
19
1?
#170000000
0!
0)
09
0?
#175000000
1!
1)
19
1?
#180000000
0!
0)
09
0?
#185000000
1!
1)
19
1?
#190000000
0!
0)
09
0?
#195000000
1!
1)
19
1?
#200000000
0!
0)
09
0?
#203000000
#205000000
1!
1)
19
1?
#210000000
0!
0)
09
0?
#215000000
1!
1)
19
1?
#220000000
0!
0)
09
0?
#223000000
1"
b0000000000000000000000000000000000000000000000000000000000000000 '
b00000000000000000000000000000000 (
1*
b0000000000000000000000000000000000000000000000000000000000000000 /
b00000000000000000000000000000000 0
b0000000000000000000000000000000000000000000000000000000000000000 3
b00000000000000000000000000000000 4
15
1:
b0000000000000000000000000000000000000000000000000000000000000000 ;
b0000000000000000000000000000000000000000000000000000000000000000 <
1@
b00000000000000000000000000000000 A
b00000000000000000000000000000000 B
#225000000
1!
1)
19
1?
#230000000
0!
0)
09
0?
#235000000
1!
1)
19
1?
#240000000
0!
0)
09
0?
#243000000
0"
0*
05
0:
0@
#245000000
1!
1)
19
1?
#246000000
b0000000000000000000000000000000000000000000000000000000000000100 %
b00000000000000000000000000000001 &
b0000000000000000000000000000000000000000000000000000000000000100 -
b00000000000000000000000000000001 .
b0000000000000000000000000000000000000000000000000000000000000100 1
b00000000000000000000000000000001 2
b0000000000000000000000000000000000000000000000000000000000000100 7
b00000000000000000000000000000001 =
#250000000
0!
b0000000000000000000000000000000000000000000000000000000000000100 '
b00000000000000000000000000000001 (
0)
b0000000000000000000000000000000000000000000000000000000000000100 /
b00000000000000000000000000000001 0
b0000000000000000000000000000000000000000000000000000000000000100 3
b00000000000000000000000000000001 4
09
b0000000000000000000000000000000000000000000000000000000000000100 ;
b0000000000000000000000000000000000000000000000000000000000000100 <
0?
b00000000000000000000000000000001 A
b00000000000000000000000000000001 B
#255000000
1!
1)
19
1?
#256000000
b0000000000000000000000000000000000000000000000000000000000001000 %
b00000000000000000000000000010000 &
b0000000000000000000000000000000000000000000000000000000000001000 -
b00000000000000000000000000010000 .
b0000000000000000000000000000000000000000000000000000000000001000 1
b00000000000000000000000000010000 2
b0000000000000000000000000000000000000000000000000000000000001000 7
b00000000000000000000000000010000 =
#260000000
0!
b0000000000000000000000000000000000000000000000000000000000001000 '
b00000000000000000000000000010000 (
0)
b0000000000000000000000000000000000000000000000000000000000001000 /
b00000000000000000000000000010000 0
b0000000000000000000000000000000000000000000000000000000000001000 3
b00000000000000000000000000010000 4
09
b0000000000000000000000000000000000000000000000000000000000001000 ;
b0000000000000000000000000000000000000000000000000000000000001000 <
0?
b00000000000000000000000000010000 A
b00000000000000000000000000010000 B
#265000000
1!
1)
19
1?
#266000000
1#
b0000000000000000000000000000000000000000000000000000000000001100 %
b00000000000000010000000000010000 &
b00000000000000000000000000000000 (
1,
b0000000000000000000000000000000000000000000000000000000000001100 -
b00000000000000010000000000010000 .
b00000000000000000000000000000000 0
b0000000000000000000000000000000000000000000000000000000000001100 1
b00000000000000010000000000010000 2
b00000000000000000000000000000000 4
15
b0000000000000000000000000000000000000000000000000000000000001100 7
b00000000000000010000000000010000 =
1@
b00000000000000000000000000000000 A
b00000000000000000000000000000000 B
#270000000
0!
b0000000000000000000000000000000000000000000000000000000000001100 '
0)
b0000000000000000000000000000000000000000000000000000000000001100 /
b0000000000000000000000000000000000000000000000000000000000001100 3
09
b0000000000000000000000000000000000000000000000000000000000001100 ;
b0000000000000000000000000000000000000000000000000000000000001100 <
0?
#275000000
1!
1)
19
1?
#276000000
0#
b0000000000000000000000000000000000000000000000000000000000000100 %
b00000000000000000000000000010000 &
0,
b0000000000000000000000000000000000000000000000000000000000000100 -
b00000000000000000000000000010000 .
b0000000000000000000000000000000000000000000000000000000000000100 1
b00000000000000000000000000010000 2
05
b0000000000000000000000000000000000000000000000000000000000000100 7
b00000000000000000000000000010000 =
0@
#280000000
0!
b0000000000000000000000000000000000000000000000000000000000001000 %
b00010000000000000000000000000000 &
b0000000000000000000000000000000000000000000000000000000000000100 '
b00000000000000000000000000010000 (
0)
b0000000000000000000000000000000000000000000000000000000000001000 -
b00010000000000000000000000000000 .
b0000000000000000000000000000000000000000000000000000000000000100 /
b00000000000000000000000000010000 0
b0000000000000000000000000000000000000000000000000000000000001000 1
b00010000000000000000000000000000 2
b0000000000000000000000000000000000000000000000000000000000000100 3
b00000000000000000000000000010000 4
b0000000000000000000000000000000000000000000000000000000000001000 7
09
b0000000000000000000000000000000000000000000000000000000000000100 ;
b0000000000000000000000000000000000000000000000000000000000000100 <
b00010000000000000000000000000000 =
0?
b00000000000000000000000000010000 A
b00000000000000000000000000010000 B
#285000000
1!
1)
19
1?
#286000000
b0000000000000000000000000000000000000000000000000000000000000000 %
b00000000000000000000000000000000 &
b0000000000000000000000000000000000000000000000000000000000000000 -
b00000000000000000000000000000000 .
b0000000000000000000000000000000000000000000000000000000000000000 1
b00000000000000000000000000000000 2
b0000000000000000000000000000000000000000000000000000000000000000 7
b00000000000000000000000000000000 =
#290000000
0!
b0000000000000000000000000000000000000000000000000000000000000000 '
b00000000000000000000000000000000 (
0)
b0000000000000000000000000000000000000000000000000000000000000000 /
b00000000000000000000000000000000 0
b0000000000000000000000000000000000000000000000000000000000000000 3
b00000000000000000000000000000000 4
09
b0000000000000000000000000000000000000000000000000000000000000000 ;
b0000000000000000000000000000000000000000000000000000000000000000 <
0?
b00000000000000000000000000000000 A
b00000000000000000000000000000000 B
#295000000
1!
1)
19
1?
#296000000
1$
b0000000000000000000000000000000000000000000000000001000000000000 %
b00000000000000000000000100000000 &
1+
b0000000000000000000000000000000000000000000000000001000000000000 -
b00000000000000000000000100000000 .
b0000000000000000000000000000000000000000000000000001000000000000 1
b00000000000000000000000100000000 2
06
b0000000000000000000000000000000000000000000000000001000000000000 7
08
b00000000000000000000000100000000 =
0>
