test/program_counter.vcd
$date
  Tue Jun 21 19:33:25 2022
$end
$version
  GHDL v0
$end
$timescale
  1 fs
$end
$scope module standard $end
$upscope $end
$scope module std_logic_1164 $end
$upscope $end
$scope module numeric_std $end
$upscope $end
$scope module program_counter_tb $end
$var reg 1 ! clock $end
$var reg 1 " reset $end
$var reg 1 # stall $end
$var reg 64 $ new_pc[63:0] $end
$var reg 64 % pc[63:0] $end
$var reg 1 & done $end
$scope module dut $end
$var reg 1 ' clock $end
$var reg 1 ( reset $end
$var reg 1 ) stall $end
$var reg 64 * new_pc[63:0] $end
$var reg 64 + pc[63:0] $end
$var reg 1 , load $end
$var reg 64 - internal_address[63:0] $end
$scope module internal_register $end
$var reg 64 . reg_in[63:0] $end
$var reg 1 / load $end
$var reg 1 0 clock $end
$var reg 1 1 clear $end
$var reg 64 2 reg_out[63:0] $end
$var reg 64 3 internal_value[63:0] $end
$upscope $end
$upscope $end
$upscope $end
$enddefinitions $end
#0
0!
0"
0#
b0000000000000000000000000000000000000000000000000000000000000000 $
b0000000000000000000000000000000000000000000000000000000000000000 %
0&
0'
0(
0)
b0000000000000000000000000000000000000000000000000000000000000000 *
b0000000000000000000000000000000000000000000000000000000000000000 +
1,
b0000000000000000000000000000000000000000000000000000000000000000 -
b0000000000000000000000000000000000000000000000000000000000000000 .
1/
00
01
b0000000000000000000000000000000000000000000000000000000000000000 2
b0000000000000000000000000000000000000000000000000000000000000000 3
#5000000
1!
1'
10
#10000000
0!
0'
00
#15000000
1!
1'
10
#20000000
0!
0'
00
#25000000
1!
1'
10
#30000000
0!
0'
00
#35000000
1!
1'
10
#40000000
0!
0'
00
#45000000
1!
1'
10
#50000000
0!
0'
00
#55000000
1!
1'
10
#60000000
0!
0'
00
#65000000
1!
1'
10
#70000000
0!
0'
00
#75000000
1!
1'
10
#80000000
0!
0'
00
#85000000
1!
1'
10
#90000000
0!
0'
00
#95000000
1!
1'
10
#100000000
0!
0'
00
#105000000
1!
1'
10
#110000000
0!
0'
00
#115000000
1!
1'
10
#120000000
0!
0'
00
#125000000
1!
1'
10
#130000000
0!
0'
00
#135000000
1!
1'
10
#140000000
0!
0'
00
#145000000
1!
1'
10
#150000000
0!
1"
0'
1(
00
11
#155000000
1!
1'
10
#160000000
0!
0'
00
#165000000
1!
1'
10
#170000000
0!
0"
0'
0(
00
01
#175000000
1!
1'
10
#180000000
0!
0'
00
#185000000
1!
1'
10
#190000000
0!
0'
00
#195000000
1!
1'
10
#200000000
0!
0'
00
#205000000
1!
1'
10
#210000000
0!
0'
00
#215000000
1!
1'
10
#220000000
0!
0'
00
#225000000
1!
1'
10
#230000000
0!
0'
00
#235000000
1!
1'
10
#240000000
0!
0'
00
#245000000
1!
1'
10
#250000000
0!
0'
00
#255000000
1!
1'
10
#260000000
0!
0'
00
#265000000
1!
1'
10
#270000000
0!
0'
00
#273000000
b0000000000000000000000000000000000000000000000000000000000000100 $
b0000000000000000000000000000000000000000000000000000000000000100 *
b0000000000000000000000000000000000000000000000000000000000000100 .
#275000000
1!
b0000000000000000000000000000000000000000000000000000000000000100 %
1'
b0000000000000000000000000000000000000000000000000000000000000100 +
10
b0000000000000000000000000000000000000000000000000000000000000100 2
b0000000000000000000000000000000000000000000000000000000000000100 3
#280000000
0!
0'
00
#285000000
1!
1'
10
#286000000
b0000000000000000000000000000000000000000000000000000000000001000 $
b0000000000000000000000000000000000000000000000000000000000001000 *
b0000000000000000000000000000000000000000000000000000000000001000 .
#290000000
0!
0'
00
#295000000
1!
b0000000000000000000000000000000000000000000000000000000000001000 %
1'
b0000000000000000000000000000000000000000000000000000000000001000 +
10
b0000000000000000000000000000000000000000000000000000000000001000 2
b0000000000000000000000000000000000000000000000000000000000001000 3
#296000000
1#
1)
0,
0/
#299000000
b0000000000000000000000000000000000000000000000000000000000001100 $
b0000000000000000000000000000000000000000000000000000000000001100 *
b0000000000000000000000000000000000000000000000000000000000001100 .
#300000000
0!
0'
00
#305000000
1!
1'
10
#309000000
0#
0)
1,
1/
#310000000
0!
0'
00
#315000000
1!
b0000000000000000000000000000000000000000000000000000000000001100 %
1'
b0000000000000000000000000000000000000000000000000000000000001100 +
10
b0000000000000000000000000000000000000000000000000000000000001100 2
b0000000000000000000000000000000000000000000000000000000000001100 3
#320000000
0!
0'
00
#325000000
1!
1'
10
#330000000
0!
0'
00
#335000000
1!
1'
10
#340000000
0!
0'
00
#345000000
1!
1'
10
#350000000
0!
0'
00
#355000000
1!
1'
10
#360000000
0!
0'
00
#365000000
1!
1'
10
#370000000
0!
0'
00
#375000000
1!
1'
10
#380000000
0!
0'
00
#385000000
1!
1'
10
#390000000
0!
0'
00
#395000000
1!
1'
10
#400000000
0!
0'
00
#405000000
1!
1'
10
#410000000
0!
0'
00
#415000000
1!
1'
10
#420000000
0!
0'
00
#425000000
1!
1'
10
#430000000
0!
0'
00
#435000000
1!
1'
10
#440000000
0!
0'
00
#445000000
1!
1'
10
#450000000
0!
0'
00
#455000000
1!
1'
10
#460000000
0!
0'
00
#465000000
1!
1'
10
#470000000
0!
0'
00
#475000000
1!
1'
10
#480000000
0!
0'
00
#485000000
1!
1'
10
#490000000
0!
0'
00
#495000000
1!
1'
10
#500000000
0!
0'
00
#505000000
1!
1'
10
#509000000
1"
b0000000000000000000000000000000000000000000000000000000000000000 %
1(
b0000000000000000000000000000000000000000000000000000000000000000 +
11
b0000000000000000000000000000000000000000000000000000000000000000 2
b0000000000000000000000000000000000000000000000000000000000000000 3
#510000000
0!
0'
00
#515000000
1!
1'
10
#520000000
0!
0'
00
#525000000
1!
1'
10
#530000000
0!
0'
00
#535000000
1!
1'
10
#540000000
0!
0'
00
#545000000
1!
1'
10
#550000000
0!
0'
00
#555000000
1!
1'
10
#560000000
0!
0'
00
#565000000
1!
1'
10
#570000000
0!
0'
00
#575000000
1!
1'
10
#580000000
0!
0'
00
#585000000
1!
1'
10
#590000000
0!
0'
00
#595000000
1!
1'
10
#600000000
0!
0'
00
#605000000
1!
1'
10
#610000000
0!
0'
00
#615000000
1!
1'
10
#620000000
0!
0'
00
#625000000
1!
1'
10
#630000000
0!
0'
00
#635000000
1!
1'
10
#640000000
0!
0'
00
#645000000
1!
1'
10
#650000000
0!
0'
00
#655000000
1!
1'
10
#660000000
0!
0'
00
#665000000
1!
1'
10
#670000000
0!
0'
00
#675000000
1!
1'
10
#680000000
0!
0'
00
#685000000
1!
1'
10
#690000000
0!
0'
00
#695000000
1!
1'
10
#700000000
0!
0'
00
#705000000
1!
1'
10
#709000000
0"
0(
01
#710000000
0!
0'
00
#715000000
1!
b0000000000000000000000000000000000000000000000000000000000001100 %
1'
b0000000000000000000000000000000000000000000000000000000000001100 +
10
b0000000000000000000000000000000000000000000000000000000000001100 2
b0000000000000000000000000000000000000000000000000000000000001100 3
#720000000
0!
0'
00
#725000000
1!
1'
10
#730000000
0!
0'
00
#735000000
1!
1'
10
#740000000
0!
0'
00
#745000000
1!
1'
10
#750000000
0!
0'
00
#755000000
1!
1'
10
#760000000
0!
0'
00
#765000000
1!
1'
10
#770000000
0!
0'
00
#775000000
1!
1'
10
#780000000
0!
0'
00
#785000000
1!
1'
10
#790000000
0!
0'
00
#795000000
1!
1'
10
#800000000
0!
0'
00
#805000000
1!
1'
10
#810000000
0!
0'
00
#815000000
1!
1'
10
#820000000
0!
0'
00
#825000000
1!
1'
10
#830000000
0!
0'
00
#835000000
1!
1'
10
#840000000
0!
0'
00
#845000000
1!
1'
10
#850000000
0!
0'
00
#855000000
1!
1'
10
#860000000
0!
0'
00
#865000000
1!
1'
10
#870000000
0!
0'
00
#875000000
1!
1'
10
#880000000
0!
0'
00
#885000000
1!
1'
10
#890000000
0!
0'
00
#895000000
1!
1'
10
#900000000
0!
0'
00
#905000000
1!
1'
10
#909000000
1#
b0000000000000000000000000000000000000000000000000000000000000100 $
1)
b0000000000000000000000000000000000000000000000000000000000000100 *
0,
b0000000000000000000000000000000000000000000000000000000000000100 .
0/
#910000000
0!
0'
00
#915000000
1!
1'
10
#920000000
0!
0'
00
#925000000
1!
1'
10
#930000000
0!
0'
00
#935000000
1!
1'
10
#940000000
0!
0'
00
#945000000
1!
1'
10
#950000000
0!
0'
00
#955000000
1!
1'
10
#960000000
0!
0'
00
#965000000
1!
1'
10
#970000000
0!
0'
00
#975000000
1!
1'
10
#980000000
0!
0'
00
#985000000
1!
1'
10
#990000000
0!
0'
00
#995000000
1!
1'
10
#1000000000
0!
0'
00
#1005000000
1!
1'
10
#1010000000
0!
0'
00
#1015000000
1!
1'
10
#1020000000
0!
0'
00
#1025000000
1!
1'
10
#1030000000
0!
0'
00
#1035000000
1!
1'
10
#1040000000
0!
0'
00
#1045000000
1!
1'
10
#1050000000
0!
0'
00
#1055000000
1!
1'
10
#1060000000
0!
0'
00
#1065000000
1!
1'
10
#1070000000
0!
0'
00
#1075000000
1!
1'
10
#1080000000
0!
0'
00
#1085000000
1!
1'
10
#1090000000
0!
0'
00
#1095000000
1!
1'
10
#1100000000
0!
0'
00
#1105000000
1!
1'
10
#1109000000
1"
b0000000000000000000000000000000000000000000000000000000000000000 %
1(
b0000000000000000000000000000000000000000000000000000000000000000 +
11
b0000000000000000000000000000000000000000000000000000000000000000 2
b0000000000000000000000000000000000000000000000000000000000000000 3
#1110000000
0!
0'
00
#1115000000
1!
1'
10
#1120000000
0!
0'
00
#1125000000
1!
1'
10
#1130000000
0!
0'
00
#1135000000
1!
1'
10
#1140000000
0!
0'
00
#1145000000
1!
1'
10
#1150000000
0!
0'
00
#1155000000
1!
1'
10
#1160000000
0!
0'
00
#1165000000
1!
1'
10
#1170000000
0!
0'
00
#1175000000
1!
1'
10
#1180000000
0!
0'
00
#1185000000
1!
1'
10
#1190000000
0!
0'
00
#1195000000
1!
1'
10
#1200000000
0!
0'
00
#1205000000
1!
1'
10
#1210000000
0!
0'
00
#1215000000
1!
1'
10
#1220000000
0!
0'
00
#1225000000
1!
1'
10
#1230000000
0!
0'
00
#1235000000
1!
1'
10
#1240000000
0!
0'
00
#1245000000
1!
1'
10
#1250000000
0!
0'
00
#1255000000
1!
1'
10
#1260000000
0!
0'
00
#1265000000
1!
1'
10
#1270000000
0!
0'
00
#1275000000
1!
1'
10
#1280000000
0!
0'
00
#1285000000
1!
1'
10
#1290000000
0!
0'
00
#1295000000
1!
1'
10
#1300000000
0!
0'
00
#1305000000
1!
1'
10
#1309000000
0"
0(
01
